<?xml version="1.0" encoding="UTF-8"?>
<svg width="26px" height="26px" viewBox="0 0 26 26" version="1.1" xmlns="http://www.w3.org/2000/svg" xmlns:xlink="http://www.w3.org/1999/xlink">
    <!-- Generator: Sketch 52.5 (67469) - http://www.bohemiancoding.com/sketch -->
    <title>Ordini</title>
    <desc>Created with Sketch.</desc>
    <g id="Symbols" stroke="none" stroke-width="1" fill="none" fill-rule="evenodd" stroke-linecap="round" stroke-linejoin="round">
        <g id="Ordini" transform="translate(1.000000, 1.000000)" stroke="#ABB4C4">
            <polygon id="Stroke-1" points="23.7096649 23.6953297 0.486097297 23.6953297 1.67701622 7.19954595 22.5187459 7.19954595"></polygon>
            <path d="M6.69976216,11.4460541 L6.69976216,5.88518919 C6.69976216,2.90335135 9.11662703,0.486486486 12.0978162,0.486486486 C15.0796541,0.486486486 17.4971676,2.90335135 17.4971676,5.88518919 L17.4971676,11.4460541" id="Stroke-3"></path>
            <path d="M5.15987027,11.4460541 L8.23900541,11.4460541" id="Stroke-5"></path>
            <path d="M15.9569514,11.4460541 L19.0360865,11.4460541" id="Stroke-7"></path>
        </g>
    </g>
</svg>