<?xml version="1.0" encoding="UTF-8"?>
<svg width="23px" height="18px" viewBox="0 0 23 18" version="1.1" xmlns="http://www.w3.org/2000/svg" xmlns:xlink="http://www.w3.org/1999/xlink">
    <!-- Generator: Sketch 52.5 (67469) - http://www.bohemiancoding.com/sketch -->
    <title>Freccia per Button</title>
    <desc>Created with Sketch.</desc>
    <g id="Symbols" stroke="none" stroke-width="1" fill="none" fill-rule="evenodd" stroke-linecap="round" stroke-linejoin="round">
        <g id="Freccia-per-Button" transform="translate(0.000000, 1.000000)" stroke="#7F8B9E" stroke-width="1.5">
            <polyline id="Stroke-1" points="13.4805 0.0002 21.4805 8.0002 13.4805 16.0002"></polyline>
            <path d="M21.4805,8.0002 L8.4805,8.0002" id="Stroke-3"></path>
            <path d="M3.6875,8.0002 L0.9995,8.0002" id="Stroke-5"></path>
        </g>
    </g>
</svg>