<?xml version="1.0" encoding="UTF-8"?>
<svg width="37px" height="37px" viewBox="0 0 37 37" version="1.1" xmlns="http://www.w3.org/2000/svg" xmlns:xlink="http://www.w3.org/1999/xlink">
    <!-- Generator: Sketch 52.5 (67469) - http://www.bohemiancoding.com/sketch -->
    <title>Icona chiudi - meno</title>
    <desc>Created with Sketch.</desc>
    <g id="Symbols" stroke="none" stroke-width="1" fill="none" fill-rule="evenodd">
        <g id="Icona-chiudi---meno" transform="translate(1.000000, 1.000000)" stroke="#7F8B9E">
            <circle id="Oval-3" cx="17.5" cy="17.5" r="17.5"></circle>
            <path d="M24.05025,17.65 L17.65025,17.65" id="Stroke-1" stroke-width="1.5" stroke-linecap="round" stroke-linejoin="round"></path>
            <path d="M14.6545,17.65 L11.250125,17.65" id="Stroke-3" stroke-width="1.5" stroke-linecap="round" stroke-linejoin="round"></path>
        </g>
    </g>
</svg>