<?xml version="1.0" encoding="UTF-8"?>
<svg width="39px" height="31px" viewBox="0 0 39 31" version="1.1" xmlns="http://www.w3.org/2000/svg" xmlns:xlink="http://www.w3.org/1999/xlink">
    <!-- Generator: Sketch 52.5 (67469) - http://www.bohemiancoding.com/sketch -->
    <title>Immagine Profilo</title>
    <desc>Created with Sketch.</desc>
    <g id="Symbols" stroke="none" stroke-width="1" fill="none" fill-rule="evenodd" stroke-linecap="round" stroke-linejoin="round">
        <g id="Immagine-Profilo" transform="translate(1.000000, 1.000000)" stroke="#AFB9CB" stroke-width="1.5">
            <path d="M0.694658537,9.82327805 L3.71334146,9.82327805 C4.4427561,9.82327805 5.03592683,10.415522 5.03592683,11.1458634 L5.03592683,23.2150341 C5.03592683,23.9453756 4.4427561,24.5376195 3.71334146,24.5376195 L0.694658537,24.5376195" id="Stroke-1"></path>
            <path d="M37.1387902,24.5375268 L34.1210341,24.5375268 C33.3906927,24.5375268 32.7984488,23.9452829 32.7984488,23.2149415 L32.7984488,11.1457707 C32.7984488,10.4154293 33.3906927,9.82318537 34.1210341,9.82318537 L37.1387902,9.82318537" id="Stroke-3"></path>
            <path d="M27.2550829,17.1804488 C27.2550829,21.7858634 23.5227415,25.5191317 18.9173268,25.5191317 C14.3119122,25.5191317 10.5786439,21.7858634 10.5786439,17.1804488 C10.5786439,12.5750341 14.3119122,8.84176585 18.9173268,8.84176585 C23.5227415,8.84176585 27.2550829,12.5750341 27.2550829,17.1804488 Z" id="Stroke-5"></path>
            <path d="M18.9172341,12.3471268 C21.5865024,12.3471268 23.7506488,14.5103463 23.7506488,17.1805415 C23.7506488,19.8498098 21.5865024,22.0139561 18.9172341,22.0139561 C16.247039,22.0139561 14.0828927,19.8498098 14.0828927,17.1805415" id="Stroke-7"></path>
            <path d="M26.081161,5.48645854 L25.0477463,2.42143415 C24.7001854,1.38987317 23.7325756,0.695678049 22.6435512,0.695678049 L16.2308195,0.695678049 C15.1417951,0.695678049 14.1741854,1.38987317 13.8266244,2.42143415 L12.7932098,5.48645854 L2.67130732,5.48645854 C1.57950244,5.48645854 0.694380488,6.37158049 0.694380488,7.46245854 L0.694380488,26.8989951 C0.694380488,27.9898732 1.57950244,28.8749951 2.67130732,28.8749951 L35.1622341,28.8749951 C36.254039,28.8749951 37.139161,27.9898732 37.139161,26.8989951 L37.139161,7.46245854 C37.139161,6.37158049 36.254039,5.48645854 35.1622341,5.48645854 L18.9176976,5.48645854" id="Stroke-9"></path>
            <path d="M4.23273659,2.12169756 L8.33488293,2.12169756" id="Stroke-11"></path>
        </g>
    </g>
</svg>