<?xml version="1.0" encoding="UTF-8"?>
<svg width="19px" height="29px" viewBox="0 0 19 29" version="1.1" xmlns="http://www.w3.org/2000/svg" xmlns:xlink="http://www.w3.org/1999/xlink">
    <!-- Generator: Sketch 52.5 (67469) - http://www.bohemiancoding.com/sketch -->
    <title>Piani e Promo</title>
    <desc>Created with Sketch.</desc>
    <g id="Symbols" stroke="none" stroke-width="1" fill="none" fill-rule="evenodd" stroke-linecap="round" stroke-linejoin="round">
        <g id="Piani-e-Promo" stroke="#A7B0C1">
            <path d="M13.1441538,7.43254615 C14.0330769,9.12454615 13.7658462,11.2651615 12.3438462,12.6871615 C10.593,14.4380077 7.75453846,14.4380077 6.00438462,12.6871615 C4.25353846,10.9370077 4.25353846,8.09785385 6.00438462,6.3477 C7.41392308,4.93746923 9.52823077,4.66331538 11.2126154,5.52385385" id="Stroke-1"></path>
            <polyline id="Stroke-3" points="9.03828462 18.7193769 6.73428462 28.2116077 4.62620769 24.5922231 1.09682308 26.8470692 2.97782308 19.0759154"></polyline>
            <polyline id="Stroke-5" points="9.98619231 22.6267615 11.3417308 28.2116077 13.4498077 24.5922231 16.9791923 26.8470692 14.4723462 17.0419154"></polyline>
            <path d="M16.0188923,5.03342308 L17.4159692,6.30242308 C17.7565846,6.61119231 17.9012769,7.08126923 17.7939692,7.52780769 L17.3550462,9.36311538 C17.3121231,9.54380769 17.3086615,9.73142308 17.3467385,9.91280769 L17.7316615,11.7605769 C17.8251231,12.2105769 17.6665846,12.6758077 17.3169692,12.9748846 L15.8832,14.2016538 C15.7426615,14.3221154 15.6298154,14.4723462 15.5536615,14.6412692 L14.7782769,16.3623462 C14.5899692,16.7811923 14.1877385,17.0643462 13.7294308,17.1010385 L11.8491231,17.2505769 C11.6635846,17.2651154 11.4842769,17.3205 11.3236615,17.4125769 L9.68496923,18.3492692 C9.28550769,18.5770385 8.79396923,18.5701154 8.40212308,18.3305769 L6.79250769,17.3454231 C6.63396923,17.2491923 6.45604615,17.1882692 6.27189231,17.1681923 L4.39573846,16.9625769 C3.93950769,16.9127308 3.54558462,16.6178077 3.36973846,16.1941154 L2.64627692,14.4508846 C2.57496923,14.2791923 2.46696923,14.1255 2.32989231,14.0008846 L0.932123077,12.7325769 C0.5922,12.4231154 0.446815385,11.9537308 0.553430769,11.5071923 L0.993046154,9.67119231 C1.03596923,9.4905 1.03873846,9.30288462 1.00135385,9.1215 L0.616430769,7.27373077 C0.522276923,6.82373077 0.681507692,6.35919231 1.03112308,6.06011538 L2.46489231,4.83334615 C2.60612308,4.71288462 2.71827692,4.56265385 2.79443077,4.39303846 L3.56981538,2.67196154 C3.75812308,2.25311538 4.15966154,1.97065385 4.61796923,1.93396154 L6.49966154,1.78442308 C6.68450769,1.76988462 6.86381538,1.7145 7.02512308,1.62242308 L8.66312308,0.685038462 C9.06189231,0.457269231 9.55343077,0.464192308 9.94596923,0.704423077 L11.5555846,1.68888462 C11.7134308,1.78580769 11.8913538,1.84603846 12.0762,1.86680769 L13.9523538,2.07173077 C14.4092769,2.12157692 14.8018154,2.4165 14.9783538,2.84088462 L15.7018154,4.58411538 C15.7738154,4.75511538 15.8818154,4.90880769 16.0188923,5.03342308 Z" id="Stroke-7"></path>
        </g>
    </g>
</svg>