<?xml version="1.0" encoding="UTF-8"?>
<svg width="20px" height="30px" viewBox="0 0 20 30" version="1.1" xmlns="http://www.w3.org/2000/svg" xmlns:xlink="http://www.w3.org/1999/xlink">
    <!-- Generator: Sketch 52.5 (67469) - http://www.bohemiancoding.com/sketch -->
    <title>Profilo</title>
    <desc>Created with Sketch.</desc>
    <g id="Symbols" stroke="none" stroke-width="1" fill="none" fill-rule="evenodd" stroke-linecap="round" stroke-linejoin="round">
        <g id="Profilo" transform="translate(1.000000, 1.000000)" stroke="#B2BAC9">
            <path d="M16.1296744,12.4324744 C17.0907907,12.4324744 17.869814,13.2114977 17.869814,14.172614 C17.869814,15.1333116 17.0907907,15.9123349 16.1296744,15.9123349" id="Stroke-1"></path>
            <path d="M1.94944186,15.9123349 C0.988325581,15.9123349 0.209302326,15.1333116 0.209302326,14.172614 C0.209302326,13.2114977 0.988325581,12.4324744 1.94944186,12.4324744" id="Stroke-3"></path>
            <path d="M17.8699395,14.1724884 L17.8699395,9.03955814 C17.8699395,4.05606977 13.7412419,0.0362093023 8.71756744,0.214953488 C3.93249767,0.384906977 0.209427907,4.46295349 0.209427907,9.25137209 L0.209427907,14.1724884" id="Stroke-5"></path>
            <path d="M9.03955814,22.5241535 C12.955186,22.5241535 16.1294651,19.3498744 16.1294651,15.4338279 L16.1294651,7.82150233 L10.4096512,7.82150233 C8.52425581,7.82150233 6.99509302,6.29275814 6.99509302,4.40694419 C6.99509302,6.29275814 5.46634884,7.82150233 3.58053488,7.82150233 L1.94965116,7.82150233 L1.94965116,15.4338279 C1.94965116,18.1991302 3.53239535,20.5948047 5.8414186,21.7639674" id="Stroke-7"></path>
            <path d="M12.2367349,21.7619581 L12.2367349,24.829493 C12.2367349,26.5951674 10.805107,27.8308884 9.03943256,27.8308884 C7.27417674,27.8308884 5.84254884,26.5951674 5.84254884,24.829493 L5.84254884,21.7619581" id="Stroke-9"></path>
            <path d="M5.8423814,24.8295349 L1.94935814,24.8295349" id="Stroke-15"></path>
            <path d="M16.1865209,24.8295349 L12.2934977,24.8295349" id="Stroke-17"></path>
            <path d="M11.4134233,16.9095767 C10.1023535,18.2206465 7.97667907,18.2206465 6.6656093,16.9095767" id="Stroke-19"></path>
        </g>
    </g>
</svg>