<?xml version="1.0" encoding="utf-8"?>
<!-- Generator: Adobe Illustrator 24.0.2, SVG Export Plug-In . SVG Version: 6.00 Build 0)  -->
<svg version="1.1" id="Capa_1" xmlns="http://www.w3.org/2000/svg" xmlns:xlink="http://www.w3.org/1999/xlink" x="0px" y="0px"
	 viewBox="0 0 51 51" style="enable-background:new 0 0 51 51;" xml:space="preserve">
<style type="text/css">
	.st0{display:none;}
	.st1{display:inline;fill:#FFFFFF;}
	.st2{display:inline;fill:#939393;}
	.st3{display:inline;}
	.st4{fill:#FFFFFF;}
	.st5{fill:#939393;}
	.st6{display:none;fill:#939393;}
</style>
<g class="st0">
	<path class="st1" d="M32.7,17.1c-2.2,0-4-1.8-4-4V1.8H11c-2.2,0-4,1.8-4,4v39.3c0,2.2,1.8,4,4,4h29c2.2,0,4-1.8,4-4V17.1H32.7z
		 M14.9,18.8h9.5c0.8,0,1.5,0.7,1.5,1.5c0,0.8-0.7,1.5-1.5,1.5h-9.5c-0.8,0-1.5-0.7-1.5-1.5C13.4,19.5,14.1,18.8,14.9,18.8z
		 M36.4,42.2H14.9c-0.8,0-1.5-0.7-1.5-1.5c0-0.8,0.7-1.5,1.5-1.5h21.5c0.8,0,1.5,0.7,1.5,1.5C37.9,41.5,37.3,42.2,36.4,42.2z
		 M36.4,35.3H14.9c-0.8,0-1.5-0.7-1.5-1.5c0-0.8,0.7-1.5,1.5-1.5h21.5c0.8,0,1.5,0.7,1.5,1.5C37.9,34.7,37.3,35.3,36.4,35.3z
		 M36.4,28.8H14.9c-0.8,0-1.5-0.7-1.5-1.5s0.7-1.5,1.5-1.5h21.5c0.8,0,1.5,0.7,1.5,1.5S37.3,28.8,36.4,28.8z"/>
	<path class="st2" d="M32.7,17.1c-2.2,0-4-1.8-4-4V1.8H11c-2.2,0-4,1.8-4,4v39.3c0,2.2,1.8,4,4,4h29c2.2,0,4-1.8,4-4V17.1H32.7z
		 M14.9,18.8h9.5c0.8,0,1.5,0.7,1.5,1.5c0,0.8-0.7,1.5-1.5,1.5h-9.5c-0.8,0-1.5-0.7-1.5-1.5C13.4,19.5,14.1,18.8,14.9,18.8z
		 M36.4,42.2H14.9c-0.8,0-1.5-0.7-1.5-1.5c0-0.8,0.7-1.5,1.5-1.5h21.5c0.8,0,1.5,0.7,1.5,1.5C37.9,41.5,37.3,42.2,36.4,42.2z
		 M36.4,35.3H14.9c-0.8,0-1.5-0.7-1.5-1.5c0-0.8,0.7-1.5,1.5-1.5h21.5c0.8,0,1.5,0.7,1.5,1.5C37.9,34.7,37.3,35.3,36.4,35.3z
		 M36.4,28.8H14.9c-0.8,0-1.5-0.7-1.5-1.5s0.7-1.5,1.5-1.5h21.5c0.8,0,1.5,0.7,1.5,1.5S37.3,28.8,36.4,28.8z"/>
</g>
<g class="st0">
	<g class="st3">
		<path class="st4" d="M1.4,50.4c0-0.7,0-1.4,0.1-2c0.2-2.1,0.6-4.2,1.4-6.3c1.5-4.1,3.8-7.6,7-10.5c1.4-1.2,2.9-2.2,4.3-3.1
			c0.4-0.2,0.5,0,0.8,0.2c1.6,1.4,3.5,2.4,5.5,3.1C26,33.5,31,32.6,35.7,29c0.7-0.5,0.7-0.5,1.5-0.1c3.7,2.2,6.7,5.2,8.9,8.9
			c1.5,2.5,2.5,5.4,3.1,8.2c0.2,1.5,0.3,3,0.5,4.4C33.4,50.4,17.4,50.4,1.4,50.4z"/>
		<path class="st4" d="M12.1,13.9C12,6.7,17.9,0.6,25.4,0.6c7.3,0,13.2,5.9,13.2,13.2c0,7.5-6,13.4-13.4,13.3
			C18.1,27.1,12,21.2,12.1,13.9z"/>
	</g>
	<g class="st3">
		<path class="st5" d="M1.4,50.4c0-0.7,0-1.4,0.1-2c0.2-2.1,0.6-4.2,1.4-6.3c1.5-4.1,3.8-7.6,7-10.5c1.4-1.2,2.9-2.2,4.3-3.1
			c0.4-0.2,0.5,0,0.8,0.2c1.6,1.4,3.5,2.4,5.5,3.1C26,33.5,31,32.6,35.7,29c0.7-0.5,0.7-0.5,1.5-0.1c3.7,2.2,6.7,5.2,8.9,8.9
			c1.5,2.5,2.5,5.4,3.1,8.2c0.2,1.5,0.3,3,0.5,4.4C33.4,50.4,17.4,50.4,1.4,50.4z"/>
		<path class="st5" d="M12.1,13.9C12,6.7,17.9,0.6,25.4,0.6c7.3,0,13.2,5.9,13.2,13.2c0,7.5-6,13.4-13.4,13.3
			C18.1,27.1,12,21.2,12.1,13.9z"/>
	</g>
</g>
<g class="st0">
	<path class="st1" d="M49.8,21.3h-2.5c-0.3,0-0.6-0.2-0.7-0.6C46,18.2,45.1,16,43.8,14c-0.2-0.3-0.1-0.7,0.1-1l1.8-1.8
		c0.3-0.3,0.3-0.8,0-1.1l-4.9-4.9C40.5,5,40,5,39.8,5.3L38,7.1c-0.2,0.2-0.6,0.3-1,0.1C35,6,32.8,5,30.4,4.5
		c-0.3-0.1-0.6-0.4-0.6-0.7V1.2c0-0.4-0.3-0.7-0.7-0.7h-6.9c-0.4,0-0.7,0.3-0.7,0.7v2.5c0,0.3-0.2,0.6-0.6,0.7
		C18.3,5,16.1,6,14.1,7.2c-0.3,0.2-0.7,0.1-1-0.1l-1.9-1.8c-0.3-0.3-0.8-0.3-1.1,0l-4.9,4.9C5,10.5,5,11,5.3,11.2L7.1,13
		c0.2,0.2,0.3,0.6,0.1,1C6,16,5,18.2,4.5,20.6c-0.1,0.3-0.4,0.6-0.7,0.6H1.2c-0.4,0-0.7,0.3-0.7,0.7v6.9c0,0.4,0.3,0.7,0.7,0.7h2.5
		c0.3,0,0.6,0.2,0.7,0.6C5,32.7,6,34.9,7.2,36.9c0.2,0.3,0.1,0.7-0.1,1l-1.8,1.9c-0.3,0.3-0.3,0.8,0,1.1l4.9,4.9
		c0.3,0.3,0.8,0.3,1.1,0l1.8-1.8c0.2-0.2,0.6-0.3,1-0.1c2,1.3,4.2,2.2,6.7,2.7c0.3,0.1,0.6,0.4,0.6,0.7v2.5c0,0.4,0.3,0.7,0.7,0.7
		h6.9c0.4,0,0.7-0.3,0.7-0.7v-2.5c0-0.3,0.2-0.6,0.6-0.7c2.4-0.5,4.6-1.5,6.7-2.7c0.3-0.2,0.7-0.1,1,0.1l1.8,1.8
		c0.3,0.3,0.8,0.3,1.1,0l4.9-4.9c0.3-0.3,0.3-0.8,0-1.1L43.8,38c-0.2-0.2-0.3-0.6-0.1-1c1.3-2,2.2-4.2,2.7-6.7
		c0.1-0.3,0.4-0.6,0.7-0.6h2.5c0.4,0,0.7-0.3,0.7-0.7v-6.9C50.7,21.6,50.3,21.3,49.8,21.3z M38,29.7c-0.2,0.5-0.4,1.1-0.6,1.6
		c-1.3,2.5-3.4,4.6-6,6c-0.5,0.2-1.1,0.5-1.6,0.6c-1.4,0.4-2.7,0.7-4.2,0.7c-1.5,0-2.9-0.2-4.2-0.7c-0.5-0.2-1.1-0.4-1.6-0.6
		c-2.5-1.3-4.6-3.4-6-6c-0.2-0.5-0.5-1.1-0.6-1.6c-0.4-1.4-0.7-2.7-0.7-4.2c0-1.5,0.2-2.9,0.7-4.2c0.2-0.5,0.4-1.1,0.6-1.6
		c1.3-2.5,3.4-4.6,6-6c0.5-0.2,1.1-0.5,1.6-0.6c1.4-0.4,2.7-0.7,4.2-0.7c1.5,0,2.9,0.2,4.2,0.7c0.5,0.2,1.1,0.4,1.6,0.6
		c2.5,1.3,4.6,3.4,6,6c0.2,0.5,0.5,1.1,0.6,1.6c0.4,1.4,0.7,2.7,0.7,4.2C38.7,27,38.4,28.4,38,29.7z"/>
	<path class="st2" d="M49.8,21.3h-2.5c-0.3,0-0.6-0.2-0.7-0.6C46,18.2,45.1,16,43.8,14c-0.2-0.3-0.1-0.7,0.1-1l1.8-1.8
		c0.3-0.3,0.3-0.8,0-1.1l-4.9-4.9C40.5,5,40,5,39.8,5.3L38,7.1c-0.2,0.2-0.6,0.3-1,0.1C35,6,32.8,5,30.4,4.5
		c-0.3-0.1-0.6-0.4-0.6-0.7V1.2c0-0.4-0.3-0.7-0.7-0.7h-6.9c-0.4,0-0.7,0.3-0.7,0.7v2.5c0,0.3-0.2,0.6-0.6,0.7
		C18.3,5,16.1,6,14.1,7.2c-0.3,0.2-0.7,0.1-1-0.1l-1.9-1.8c-0.3-0.3-0.8-0.3-1.1,0l-4.9,4.9C5,10.5,5,11,5.3,11.2L7.1,13
		c0.2,0.2,0.3,0.6,0.1,1C6,16,5,18.2,4.5,20.6c-0.1,0.3-0.4,0.6-0.7,0.6H1.2c-0.4,0-0.7,0.3-0.7,0.7v6.9c0,0.4,0.3,0.7,0.7,0.7h2.5
		c0.3,0,0.6,0.2,0.7,0.6C5,32.7,6,34.9,7.2,36.9c0.2,0.3,0.1,0.7-0.1,1l-1.8,1.9c-0.3,0.3-0.3,0.8,0,1.1l4.9,4.9
		c0.3,0.3,0.8,0.3,1.1,0l1.8-1.8c0.2-0.2,0.6-0.3,1-0.1c2,1.3,4.2,2.2,6.7,2.7c0.3,0.1,0.6,0.4,0.6,0.7v2.5c0,0.4,0.3,0.7,0.7,0.7
		h6.9c0.4,0,0.7-0.3,0.7-0.7v-2.5c0-0.3,0.2-0.6,0.6-0.7c2.4-0.5,4.6-1.5,6.7-2.7c0.3-0.2,0.7-0.1,1,0.1l1.8,1.8
		c0.3,0.3,0.8,0.3,1.1,0l4.9-4.9c0.3-0.3,0.3-0.8,0-1.1L43.8,38c-0.2-0.2-0.3-0.6-0.1-1c1.3-2,2.2-4.2,2.7-6.7
		c0.1-0.3,0.4-0.6,0.7-0.6h2.5c0.4,0,0.7-0.3,0.7-0.7v-6.9C50.7,21.6,50.3,21.3,49.8,21.3z M38,29.7c-0.2,0.5-0.4,1.1-0.6,1.6
		c-1.3,2.5-3.4,4.6-6,6c-0.5,0.2-1.1,0.5-1.6,0.6c-1.4,0.4-2.7,0.7-4.2,0.7c-1.5,0-2.9-0.2-4.2-0.7c-0.5-0.2-1.1-0.4-1.6-0.6
		c-2.5-1.3-4.6-3.4-6-6c-0.2-0.5-0.5-1.1-0.6-1.6c-0.4-1.4-0.7-2.7-0.7-4.2c0-1.5,0.2-2.9,0.7-4.2c0.2-0.5,0.4-1.1,0.6-1.6
		c1.3-2.5,3.4-4.6,6-6c0.5-0.2,1.1-0.5,1.6-0.6c1.4-0.4,2.7-0.7,4.2-0.7c1.5,0,2.9,0.2,4.2,0.7c0.5,0.2,1.1,0.4,1.6,0.6
		c2.5,1.3,4.6,3.4,6,6c0.2,0.5,0.5,1.1,0.6,1.6c0.4,1.4,0.7,2.7,0.7,4.2C38.7,27,38.4,28.4,38,29.7z"/>
</g>
<g class="st0">
	<g class="st3">
		<path class="st4" d="M43,20.9c-1.7,2.9-4,2.9-5.8,0.1c-2,2.8-4.1,2.7-5.8-0.1c-2,2.9-4.3,2.9-5.6,0.3c-1,0.6-2,1.5-3.1,1.7
			c-1.4,0.3-2.4-0.8-2.9-2.1c-1.7,3.1-4.4,2.7-5.9,0.2c-1.6,2.5-4.1,2.9-5.7,0.3c-1,0.6-1.9,1.5-2.9,1.7c-1.6,0.4-3-1.1-3.1-2.9
			c-0.1-1.6-0.1-3.3,0-4.9c0-0.5,0.2-1.1,0.5-1.5c1.5-2,3-4.1,4.6-6c0.3-0.4,1-0.8,1.6-0.8c11,0,22,0,33,0c0.5,0,1.2,0.4,1.6,0.8
			c1.6,2,3.1,4,4.6,6c0.3,0.4,0.5,1.1,0.5,1.6c0.1,1.3,0,2.7,0,4c0,2.2-0.7,3.2-2.2,3.6C45.2,23.3,44.1,22.7,43,20.9z"/>
		<path class="st4" d="M45.5,24.5H5.4v15.8c0,3.6,2.1,5.8,5.7,5.8c4.5,0,9,0,13.5,0h5.2v-15h10.5v14.9c3.2,0,5.4-2.3,5.4-5.3
			c0-5,0-10.1,0-15.1C45.6,25.3,45.5,24.9,45.5,24.5z M23,37.4H11v-6.3H23V37.4z"/>
	</g>
	<g class="st3">
		<path class="st5" d="M43,20.9c-1.7,2.9-4,2.9-5.8,0.1c-2,2.8-4.1,2.7-5.8-0.1c-2,2.9-4.3,2.9-5.6,0.3c-1,0.6-2,1.5-3.1,1.7
			c-1.4,0.3-2.4-0.8-2.9-2.1c-1.7,3.1-4.4,2.7-5.9,0.2c-1.6,2.5-4.1,2.9-5.7,0.3c-1,0.6-1.9,1.5-2.9,1.7c-1.6,0.4-3-1.1-3.1-2.9
			c-0.1-1.6-0.1-3.3,0-4.9c0-0.5,0.2-1.1,0.5-1.5c1.5-2,3-4.1,4.6-6c0.3-0.4,1-0.8,1.6-0.8c11,0,22,0,33,0c0.5,0,1.2,0.4,1.6,0.8
			c1.6,2,3.1,4,4.6,6c0.3,0.4,0.5,1.1,0.5,1.6c0.1,1.3,0,2.7,0,4c0,2.2-0.7,3.2-2.2,3.6C45.2,23.3,44.1,22.7,43,20.9z"/>
		<path class="st5" d="M45.5,24.5H5.4v15.8c0,3.6,2.1,5.8,5.7,5.8c4.5,0,9,0,13.5,0h5.2v-15h10.5v14.9c3.2,0,5.4-2.3,5.4-5.3
			c0-5,0-10.1,0-15.1C45.6,25.3,45.5,24.9,45.5,24.5z M23,37.4H11v-6.3H23V37.4z"/>
	</g>
</g>
<g class="st0">
	<path class="st1" d="M31.3,34.3c0-1.4-0.4-2.5-1.3-3.4s-2.3-1.7-4.4-2.4c-2-0.7-3.6-1.4-4.8-2c-3.8-2-5.7-5-5.7-9
		c0-2.7,0.8-4.9,2.5-6.7c1.6-1.7,3.9-2.8,6.7-3.1V2.3h3.9v5.4c2.8,0.4,5,1.6,6.6,3.6c1.5,2,2.3,4.6,2.3,7.8h-5.9
		c0-2-0.5-3.7-1.4-4.8c-0.9-1.2-2.2-1.8-3.7-1.8c-1.6,0-2.8,0.4-3.7,1.3c-0.9,0.8-1.3,2.1-1.3,3.6c0,1.4,0.4,2.5,1.3,3.4
		c0.9,0.9,2.3,1.7,4.4,2.4c2.1,0.8,3.7,1.5,4.9,2.1c1.2,0.7,2.2,1.4,3,2.2c0.8,0.8,1.4,1.8,1.9,2.9c0.4,1.1,0.7,2.4,0.7,3.8
		c0,2.7-0.8,5-2.5,6.7s-4,2.7-7,3v4.8h-3.9V44c-3.2-0.4-5.7-1.5-7.4-3.5c-1.7-2-2.6-4.5-2.6-7.8h5.9c0,2,0.5,3.6,1.5,4.8
		c1,1.1,2.5,1.7,4.4,1.7c1.9,0,3.3-0.4,4.2-1.3C30.8,37,31.3,35.8,31.3,34.3z"/>
	<path class="st2" d="M31.3,34.3c0-1.4-0.4-2.5-1.3-3.4s-2.3-1.7-4.4-2.4c-2-0.7-3.6-1.4-4.8-2c-3.8-2-5.7-5-5.7-9
		c0-2.7,0.8-4.9,2.5-6.7c1.6-1.7,3.9-2.8,6.7-3.1V2.3h3.9v5.4c2.8,0.4,5,1.6,6.6,3.6c1.5,2,2.3,4.6,2.3,7.8h-5.9
		c0-2-0.5-3.7-1.4-4.8c-0.9-1.2-2.2-1.8-3.7-1.8c-1.6,0-2.8,0.4-3.7,1.3c-0.9,0.8-1.3,2.1-1.3,3.6c0,1.4,0.4,2.5,1.3,3.4
		c0.9,0.9,2.3,1.7,4.4,2.4c2.1,0.8,3.7,1.5,4.9,2.1c1.2,0.7,2.2,1.4,3,2.2c0.8,0.8,1.4,1.8,1.9,2.9c0.4,1.1,0.7,2.4,0.7,3.8
		c0,2.7-0.8,5-2.5,6.7s-4,2.7-7,3v4.8h-3.9V44c-3.2-0.4-5.7-1.5-7.4-3.5c-1.7-2-2.6-4.5-2.6-7.8h5.9c0,2,0.5,3.6,1.5,4.8
		c1,1.1,2.5,1.7,4.4,1.7c1.9,0,3.3-0.4,4.2-1.3C30.8,37,31.3,35.8,31.3,34.3z"/>
</g>
<g class="st0">
	<g>
		<path class="st1" d="M5.4,44c-0.4-2.1,0-3.8,1.2-5.5c1.7-2.4,3.3-4.8,3.8-7.8c0.4-2,0.6-4.1,0.7-6.1c0.1-3.5,0.3-6.9,1.5-10.2
			c1.6-4.4,4.3-7.7,9-9.1c0.2-0.1,0.4-0.3,0.5-0.6c0.5-2.1,2-3.5,3.9-3.5c1.9,0,3.4,1.4,3.8,3.5c0,0.2,0.2,0.5,0.4,0.5
			c6,1.8,8.7,6.3,9.9,12c0.5,2.5,0.7,5,0.7,7.5c0,4.5,1,8.6,3.6,12.3c0.4,0.6,0.9,1.3,1.3,2c1.1,1.7,1.3,2.9,0.9,4.9
			C32.9,44,19.1,44,5.4,44z"/>
		<path class="st1" d="M20.9,45.2c3.4,0,6.7,0,10.2,0c0,1.8-0.7,3.2-2.1,4.2c-1.7,1.3-3.6,1.4-5.5,0.3
			C21.8,48.7,20.9,47.2,20.9,45.2z"/>
	</g>
	<g class="st3">
		<path class="st5" d="M5.4,44c-0.4-2.1,0-3.8,1.2-5.5c1.7-2.4,3.3-4.8,3.8-7.8c0.4-2,0.6-4.1,0.7-6.1c0.1-3.5,0.3-6.9,1.5-10.2
			c1.6-4.4,4.3-7.7,9-9.1c0.2-0.1,0.4-0.3,0.5-0.6c0.5-2.1,2-3.5,3.9-3.5c1.9,0,3.4,1.4,3.8,3.5c0,0.2,0.2,0.5,0.4,0.5
			c6,1.8,8.7,6.3,9.9,12c0.5,2.5,0.7,5,0.7,7.5c0,4.5,1,8.6,3.6,12.3c0.4,0.6,0.9,1.3,1.3,2c1.1,1.7,1.3,2.9,0.9,4.9
			C32.9,44,19.1,44,5.4,44z"/>
		<path class="st5" d="M20.9,45.2c3.4,0,6.7,0,10.2,0c0,1.8-0.7,3.2-2.1,4.2c-1.7,1.3-3.6,1.4-5.5,0.3
			C21.8,48.7,20.9,47.2,20.9,45.2z"/>
	</g>
</g>
<g class="st0">
	<g>
		<path class="st1" d="M50.7,22.5c-1.5,1-3.1,2-4.6,2.9c-3.6,2.2-7.3,4.3-10.9,6.5c-0.8,0.5-1.4,0.5-2.3,0.1
			c-2.1-1.2-4.2-2.3-6.4-3.4c0,5.4,0,10.6,0,15.9c0.3-0.1,0.6-0.2,0.9-0.4c3.9-2,7.8-3.9,11.7-5.9c0.7-0.3,1-0.8,0.9-1.5
			c-0.1-1.6,0-3.2,0-4.8c0-0.7,0.2-1.3,1-1.3c0.8,0,1.1,0.5,1.1,1.3c0,2.1,0,4.2,0,6.3c0,0.5-0.4,1.1-0.9,1.4c-5,2.6-10,5.1-15,7.5
			c-0.5,0.2-1.2,0.2-1.7,0c-5-2.5-10-5-15-7.5c-0.4-0.2-0.8-0.9-0.9-1.4c-0.1-2.1,0-4.2,0-6.3c0-0.8,0.3-1.3,1.1-1.3
			c0.8,0,1,0.6,1,1.3c0,1.7,0,3.4,0,5c0,0.4,0.2,0.9,0.5,1.1c4.2,2.2,8.5,4.3,12.7,6.4c0.1,0,0.1,0,0.3,0c0-5.2,0-10.4,0-15.7
			c-0.3,0.1-0.5,0.2-0.8,0.3c-1.9,1-3.9,2.1-5.8,3.1c-0.6,0.3-1.1,0.4-1.8,0c-5-3-9.9-5.9-14.9-8.8c-0.3-0.2-0.6-0.4-0.9-0.7
			c0-0.3,0-0.6,0-0.9c2.5-1.4,4.9-2.8,7.5-4.3C6,16.2,4.4,15.1,2.8,14c-1.5-1-1.5-1.7,0.1-2.5c4.1-2.1,8.2-4.2,12.4-6.2
			c4-2,2.4-2,6.3,0.3c1.3,0.8,2.6,2.2,3.8,2.2c1.3,0,2.6-1.4,3.9-2.2c3.8-2.3,2.2-2.2,6.3-0.3c4.2,2,8.3,4.1,12.5,6.2
			c1.4,0.7,1.5,1.5,0.1,2.4c-0.3,0.2-0.6,0.4-0.9,0.6c-1.3,0.9-2.7,1.8-4.1,2.8c0.7,0.4,1.2,0.6,1.7,0.9c1.9,1.1,3.9,2.2,5.8,3.3
			C50.7,21.9,50.7,22.2,50.7,22.5z M12.2,17.4c0.1,0.1,0.2,0.2,0.3,0.3c4.2,2.5,8.4,5,12.6,7.5c0.3,0.2,0.8,0.1,1.1-0.1
			c2.5-1.4,4.9-2.9,7.3-4.3c1.8-1.1,3.6-2.1,5.5-3.3c-4.4-2.3-8.8-4.6-13.1-6.9c-0.2-0.1-0.6-0.1-0.8,0
			C20.8,12.9,16.5,15.2,12.2,17.4z M3.5,22.2c4.4,2.6,8.7,5.1,13,7.7c0.2,0.1,0.6,0.2,0.8,0.1c2-1,4-2.1,6.1-3.2
			c-4.5-2.6-8.8-5.2-13.1-7.7c-0.2-0.1-0.5-0.2-0.6-0.1C7.6,19.9,5.6,21,3.5,22.2z M47.5,22.2c-2.1-1.1-4.1-2.2-6.1-3.2
			c-0.2-0.1-0.7,0-1,0.2c-2.3,1.3-4.6,2.7-6.8,4c-1.9,1.2-3.9,2.3-6,3.6c2.1,1.1,4.1,2.2,6.1,3.2c0.2,0.1,0.6,0,0.9-0.1
			C38.8,27.3,43.1,24.8,47.5,22.2z M23.4,9.1c-1.5-0.9-2.8-1.7-4.1-2.6c-0.5-0.4-0.9-0.4-1.5-0.1c-4,2-7.9,4-11.9,6
			C5.6,12.6,5.3,12.8,5,13c1.5,1,3,2,4.4,3c0.2,0.2,0.7,0.2,1,0C14.7,13.8,18.9,11.5,23.4,9.1z M27.6,9.1c4.4,2.3,8.7,4.6,13,6.8
			c0.2,0.1,0.7,0.1,0.9,0c1.5-1,3-2,4.4-3c-0.1-0.1-0.1-0.2-0.2-0.2c-4.3-2.1-8.5-4.3-12.8-6.4c-0.2-0.1-0.6-0.1-0.8,0
			C30.7,7.2,29.2,8.1,27.6,9.1z"/>
	</g>
	<path class="st2" d="M50.7,22.5c-1.5,1-3.1,2-4.6,2.9c-3.6,2.2-7.3,4.3-10.9,6.5c-0.8,0.5-1.4,0.5-2.3,0.1
		c-2.1-1.2-4.2-2.3-6.4-3.4c0,5.4,0,10.6,0,15.9c0.3-0.1,0.6-0.2,0.9-0.4c3.9-2,7.8-3.9,11.7-5.9c0.7-0.3,1-0.8,0.9-1.5
		c-0.1-1.6,0-3.2,0-4.8c0-0.7,0.2-1.3,1-1.3c0.8,0,1.1,0.5,1.1,1.3c0,2.1,0,4.2,0,6.3c0,0.5-0.4,1.1-0.9,1.4c-5,2.6-10,5.1-15,7.5
		c-0.5,0.2-1.2,0.2-1.7,0c-5-2.5-10-5-15-7.5c-0.4-0.2-0.8-0.9-0.9-1.4c-0.1-2.1,0-4.2,0-6.3c0-0.8,0.3-1.3,1.1-1.3
		c0.8,0,1,0.6,1,1.3c0,1.7,0,3.4,0,5c0,0.4,0.2,0.9,0.5,1.1c4.2,2.2,8.5,4.3,12.7,6.4c0.1,0,0.1,0,0.3,0c0-5.2,0-10.4,0-15.7
		c-0.3,0.1-0.5,0.2-0.8,0.3c-1.9,1-3.9,2.1-5.8,3.1c-0.6,0.3-1.1,0.4-1.8,0c-5-3-9.9-5.9-14.9-8.8c-0.3-0.2-0.6-0.4-0.9-0.7
		c0-0.3,0-0.6,0-0.9c2.5-1.4,4.9-2.8,7.5-4.3C6,16.2,4.4,15.1,2.8,14c-1.5-1-1.5-1.7,0.1-2.5c4.1-2.1,8.2-4.2,12.4-6.2
		c4-2,2.4-2,6.3,0.3c1.3,0.8,2.6,2.2,3.8,2.2c1.3,0,2.6-1.4,3.9-2.2c3.8-2.3,2.2-2.2,6.3-0.3c4.2,2,8.3,4.1,12.5,6.2
		c1.4,0.7,1.5,1.5,0.1,2.4c-0.3,0.2-0.6,0.4-0.9,0.6c-1.3,0.9-2.7,1.8-4.1,2.8c0.7,0.4,1.2,0.6,1.7,0.9c1.9,1.1,3.9,2.2,5.8,3.3
		C50.7,21.9,50.7,22.2,50.7,22.5z M12.2,17.4c0.1,0.1,0.2,0.2,0.3,0.3c4.2,2.5,8.4,5,12.6,7.5c0.3,0.2,0.8,0.1,1.1-0.1
		c2.5-1.4,4.9-2.9,7.3-4.3c1.8-1.1,3.6-2.1,5.5-3.3c-4.4-2.3-8.8-4.6-13.1-6.9c-0.2-0.1-0.6-0.1-0.8,0
		C20.8,12.9,16.5,15.2,12.2,17.4z M3.5,22.2c4.4,2.6,8.7,5.1,13,7.7c0.2,0.1,0.6,0.2,0.8,0.1c2-1,4-2.1,6.1-3.2
		c-4.5-2.6-8.8-5.2-13.1-7.7c-0.2-0.1-0.5-0.2-0.6-0.1C7.6,19.9,5.6,21,3.5,22.2z M47.5,22.2c-2.1-1.1-4.1-2.2-6.1-3.2
		c-0.2-0.1-0.7,0-1,0.2c-2.3,1.3-4.6,2.7-6.8,4c-1.9,1.2-3.9,2.3-6,3.6c2.1,1.1,4.1,2.2,6.1,3.2c0.2,0.1,0.6,0,0.9-0.1
		C38.8,27.3,43.1,24.8,47.5,22.2z M23.4,9.1c-1.5-0.9-2.8-1.7-4.1-2.6c-0.5-0.4-0.9-0.4-1.5-0.1c-4,2-7.9,4-11.9,6
		C5.6,12.6,5.3,12.8,5,13c1.5,1,3,2,4.4,3c0.2,0.2,0.7,0.2,1,0C14.7,13.8,18.9,11.5,23.4,9.1z M27.6,9.1c4.4,2.3,8.7,4.6,13,6.8
		c0.2,0.1,0.7,0.1,0.9,0c1.5-1,3-2,4.4-3c-0.1-0.1-0.1-0.2-0.2-0.2c-4.3-2.1-8.5-4.3-12.8-6.4c-0.2-0.1-0.6-0.1-0.8,0
		C30.7,7.2,29.2,8.1,27.6,9.1z"/>
</g>
<g class="st0">
	<g>
		<path class="st1" d="M40.6,33.5c-1.5,2.5-1.7,5.9-5.5,6.1c0.6-1.3,1.1-2.5,1.7-3.7c0.5-1.1,0.9-2.2,1.4-3.2c0.2-0.5,0.7-0.8,1-1.2
			c0.2-0.3,0.5-0.6,0.5-0.8c0.1-0.7,0-1.5,0-2.4c-0.5,0.2-0.8,0.2-1.1,0.4c-1.4,0.5-2,0.2-2-1.3c0-2.1,0-4.1,0-6.2
			c0-0.8-0.2-1.3-1-1.7c-2.6-1.2-4.9-2.8-6.8-5.2c-0.6,0.4-1.2,0.8-1.7,1.2c-3.4,2.4-7.2,3.4-11.2,4.2c-0.3,0.1-0.6,0.1-1,0.2
			c-2.5,0.5-2.5,0.5-2.5,3c0,1.5,0,2.9,0,4.4c0,1.6-0.8,2.1-2.3,1.4c-0.9-0.4-1.8-0.9-2.7-1.3c-0.9,2-0.1,3.8,1.8,4.2
			c0.9,0.2,1.2,0.6,1.5,1.3c1.5,3.9,3.2,7.8,5.9,11.2c1.8,2.4,4.1,4.3,7.2,4.5c2.4,0.2,4.5-0.7,6.3-2.3c0.4-0.3,0.7-0.7,1-1
			c1.1-1.1,1.9-1.2,3.6-0.7c-1.2,1.9-2.8,3.4-4.7,4.7c-4.1,2.7-9.6,2-13.3-1.6c-3.4-3.3-5.5-7.4-7.3-11.7c-0.5-1.1-0.9-2-2.1-2.6
			c-2.7-1.4-3.6-4.8-2.1-7.6c0.3-0.6,0.5-1.4,0.5-2.1C5.8,20.8,5.6,17.9,6,15C7.3,7,13.1,1.6,21.2,0.5c0.8-0.1,1.5-0.1,2.3-0.2
			c1.7-0.2,3.2,0.2,4.3,1.6C28,2.2,28.6,2.4,29,2.4c3.6,0.1,6.9,1.3,9.5,3.8c2.5,2.3,3.8,5.3,4.2,8.6c0.3,2,0.2,4.1,0.3,6.2
			c0,0.7,0.2,1.1,1,1.4c1.5,0.5,2.3,1.7,2.4,3.3c0.1,1.4,0.1,2.8,0,4.1c-0.1,1.6-0.9,2.8-2.4,3.3c-0.8,0.3-1,0.6-1,1.4
			c0.1,3.9-2.6,7.1-5.7,8.1c-1.7,0.6-3.6,0.5-5.4,0.6c-1.2,0.1-2.3,0.1-3.2,1.2c-1.4,1.6-5.2,1.4-6.7-0.1c-1.1-1-1.2-2.2-0.8-3.5
			c0.4-1.3,1.4-2.2,2.9-2.3c2.1-0.1,4.1-0.2,5.5,1.8c0.1,0.2,0.4,0.3,0.6,0.3c2.2-0.1,4.5,0,6.6-0.5C39.2,39.7,41,36.7,40.6,33.5z
			 M38.7,25.5c0.2,0,0.4,0.1,0.6,0.1c0.1-0.4,0.3-0.8,0.4-1.3c0.1-0.6,0-1.5,0.4-1.7c1-0.7,0.9-1.7,0.8-2.6
			c-0.1-1.8-0.2-3.6-0.5-5.4c-1.1-5.7-4.8-9.4-10.9-9.8c-1.5-0.1-2.9-0.4-3.8-1.7c-0.3-0.4-0.9-0.7-1.3-0.7c-1.1,0-2.2,0.2-3.2,0.4
			C14.3,4.2,9.6,8.4,8.3,15c-0.5,2.8-0.3,5.6-0.4,8.5c0,1.4,0.5,1.9,2.2,2c0-1.9,0-3.7,0-5.6c0-1.9,0.3-2.1,2.3-2.4
			c1.7-0.2,3.5-0.4,5.1-0.8c3.9-0.9,7.5-2.2,10.4-5.1c0.8-0.8,1.5-0.4,2,0.4c1.7,2.7,4.3,4.3,7.1,5.5c1.2,0.5,1.6,1.1,1.6,2.3
			C38.6,21.7,38.7,23.6,38.7,25.5z M42.1,27.7c0,0.8-0.1,1.6,0,2.3c0,0.3,0.5,0.9,0.6,0.9c0.4-0.1,1.2-0.5,1.2-0.8
			c0.1-1.6,0.1-3.2,0-4.9c0-0.3-0.7-0.6-1.1-0.8c-0.2,0.3-0.6,0.7-0.7,1C42,26.2,42.1,27,42.1,27.7z M25.6,42.9
			C25.6,42.9,25.6,42.9,25.6,42.9c0.3,0,0.6,0.1,0.8,0c0.4-0.2,0.8-0.6,1.2-0.9c-0.4-0.3-0.7-0.8-1.2-0.9c-0.7-0.2-1.5-0.1-2.2,0
			c-0.3,0.1-0.8,0.6-0.8,1c0,0.3,0.5,0.7,0.8,0.8C24.6,43,25.1,42.9,25.6,42.9z"/>
	</g>
	<path class="st2" d="M40.6,33.5c-1.5,2.5-1.7,5.9-5.5,6.1c0.6-1.3,1.1-2.5,1.7-3.7c0.5-1.1,0.9-2.2,1.4-3.2c0.2-0.5,0.7-0.8,1-1.2
		c0.2-0.3,0.5-0.6,0.5-0.8c0.1-0.7,0-1.5,0-2.4c-0.5,0.2-0.8,0.2-1.1,0.4c-1.4,0.5-2,0.2-2-1.3c0-2.1,0-4.1,0-6.2
		c0-0.8-0.2-1.3-1-1.7c-2.6-1.2-4.9-2.8-6.8-5.2c-0.6,0.4-1.2,0.8-1.7,1.2c-3.4,2.4-7.2,3.4-11.2,4.2c-0.3,0.1-0.6,0.1-1,0.2
		c-2.5,0.5-2.5,0.5-2.5,3c0,1.5,0,2.9,0,4.4c0,1.6-0.8,2.1-2.3,1.4c-0.9-0.4-1.8-0.9-2.7-1.3c-0.9,2-0.1,3.8,1.8,4.2
		c0.9,0.2,1.2,0.6,1.5,1.3c1.5,3.9,3.2,7.8,5.9,11.2c1.8,2.4,4.1,4.3,7.2,4.5c2.4,0.2,4.5-0.7,6.3-2.3c0.4-0.3,0.7-0.7,1-1
		c1.1-1.1,1.9-1.2,3.6-0.7c-1.2,1.9-2.8,3.4-4.7,4.7c-4.1,2.7-9.6,2-13.3-1.6c-3.4-3.3-5.5-7.4-7.3-11.7c-0.5-1.1-0.9-2-2.1-2.6
		c-2.7-1.4-3.6-4.8-2.1-7.6c0.3-0.6,0.5-1.4,0.5-2.1C5.8,20.8,5.6,17.9,6,15C7.3,7,13.1,1.6,21.2,0.5c0.8-0.1,1.5-0.1,2.3-0.2
		c1.7-0.2,3.2,0.2,4.3,1.6C28,2.2,28.6,2.4,29,2.4c3.6,0.1,6.9,1.3,9.5,3.8c2.5,2.3,3.8,5.3,4.2,8.6c0.3,2,0.2,4.1,0.3,6.2
		c0,0.7,0.2,1.1,1,1.4c1.5,0.5,2.3,1.7,2.4,3.3c0.1,1.4,0.1,2.8,0,4.1c-0.1,1.6-0.9,2.8-2.4,3.3c-0.8,0.3-1,0.6-1,1.4
		c0.1,3.9-2.6,7.1-5.7,8.1c-1.7,0.6-3.6,0.5-5.4,0.6c-1.2,0.1-2.3,0.1-3.2,1.2c-1.4,1.6-5.2,1.4-6.7-0.1c-1.1-1-1.2-2.2-0.8-3.5
		c0.4-1.3,1.4-2.2,2.9-2.3c2.1-0.1,4.1-0.2,5.5,1.8c0.1,0.2,0.4,0.3,0.6,0.3c2.2-0.1,4.5,0,6.6-0.5C39.2,39.7,41,36.7,40.6,33.5z
		 M38.7,25.5c0.2,0,0.4,0.1,0.6,0.1c0.1-0.4,0.3-0.8,0.4-1.3c0.1-0.6,0-1.5,0.4-1.7c1-0.7,0.9-1.7,0.8-2.6c-0.1-1.8-0.2-3.6-0.5-5.4
		c-1.1-5.7-4.8-9.4-10.9-9.8c-1.5-0.1-2.9-0.4-3.8-1.7c-0.3-0.4-0.9-0.7-1.3-0.7c-1.1,0-2.2,0.2-3.2,0.4C14.3,4.2,9.6,8.4,8.3,15
		c-0.5,2.8-0.3,5.6-0.4,8.5c0,1.4,0.5,1.9,2.2,2c0-1.9,0-3.7,0-5.6c0-1.9,0.3-2.1,2.3-2.4c1.7-0.2,3.5-0.4,5.1-0.8
		c3.9-0.9,7.5-2.2,10.4-5.1c0.8-0.8,1.5-0.4,2,0.4c1.7,2.7,4.3,4.3,7.1,5.5c1.2,0.5,1.6,1.1,1.6,2.3C38.6,21.7,38.7,23.6,38.7,25.5z
		 M42.1,27.7c0,0.8-0.1,1.6,0,2.3c0,0.3,0.5,0.9,0.6,0.9c0.4-0.1,1.2-0.5,1.2-0.8c0.1-1.6,0.1-3.2,0-4.9c0-0.3-0.7-0.6-1.1-0.8
		c-0.2,0.3-0.6,0.7-0.7,1C42,26.2,42.1,27,42.1,27.7z M25.6,42.9C25.6,42.9,25.6,42.9,25.6,42.9c0.3,0,0.6,0.1,0.8,0
		c0.4-0.2,0.8-0.6,1.2-0.9c-0.4-0.3-0.7-0.8-1.2-0.9c-0.7-0.2-1.5-0.1-2.2,0c-0.3,0.1-0.8,0.6-0.8,1c0,0.3,0.5,0.7,0.8,0.8
		C24.6,43,25.1,42.9,25.6,42.9z"/>
</g>
<g>
	<polygon class="st4" points="17.9,17.3 24.9,2.3 32.6,17 49,19 37.4,30.8 40.6,47 25.8,39.7 11.3,47.7 13.7,31.3 1.6,20.1 	"/>
	<polygon class="st6" points="17.9,17.3 24.9,2.3 32.6,17 49,19 37.4,30.8 40.6,47 25.8,39.7 11.3,47.7 13.7,31.3 1.6,20.1 	"/>
</g>
</svg>
